{
  "kind": "collectionType",
  "collectionName": "cards",
  "info": {
    "singularName": "card",
    "pluralName": "cards",
    "displayName": "card"
  },
  "options": {
    "draftAndPublish": true
  },
  "pluginOptions": {},
  "attributes": {
    "text": {
      "type": "string"
    }
  }
}
