{
  "kind": "collectionType",
  "collectionName": "navbar_buttons",
  "info": {
    "singularName": "navbar-button",
    "pluralName": "navbar-buttons",
    "displayName": "navbarButton"
  },
  "options": {
    "draftAndPublish": true
  },
  "pluginOptions": {},
  "attributes": {
    "button": {
      "type": "string",
      "required": true
    },
    "href": {
      "type": "string"
    }
  }
}
