{
  "kind": "collectionType",
  "collectionName": "section2s",
  "info": {
    "singularName": "section2",
    "pluralName": "section2s",
    "displayName": "Section2"
  },
  "options": {
    "draftAndPublish": true
  },
  "pluginOptions": {},
  "attributes": {
    "title": {
      "type": "string"
    },
    "subTitle": {
      "type": "string"
    },
    "img_url": {
      "type": "string"
    }
  }
}
